%YAML 1.1
%TAG !u! tag:unity3d.com,2011:
--- !u!21 &2100000
Material:
  serializedVersion: 6
  m_ObjectHideFlags: 0
  m_PrefabParentObject: {fileID: 0}
  m_PrefabInternal: {fileID: 0}
  m_Name: Medipack Red
  m_Shader: {fileID: 4800000, guid: 9231b0af51a709b4483d9d5e4f98052f, type: 3}
  m_ShaderKeywords: 
  m_LightmapFlags: 5
  m_EnableInstancingVariants: 0
  m_DoubleSidedGI: 0
  m_CustomRenderQueue: -1
  stringTagMap: {}
  disabledShaderPasses: []
  m_SavedProperties:
    serializedVersion: 3
    m_TexEnvs:
    - _BumpMap:
        m_Texture: {fileID: 2800000, guid: 6f3abb94392d419438aefc9a13ed4ff7, type: 3}
        m_Scale: {x: 1, y: 1}
        m_Offset: {x: 0, y: 0}
    - _Cube:
        m_Texture: {fileID: 8900000, guid: dc040cde3d92b624ca71f0f6c4d213f5, type: 2}
        m_Scale: {x: 1, y: 1}
        m_Offset: {x: 0, y: 0}
    - _MainTex:
        m_Texture: {fileID: 2800000, guid: 90fe498ed46c4f24bbd9fac4d4f23352, type: 3}
        m_Scale: {x: 1, y: 1}
        m_Offset: {x: 0, y: 0}
    m_Floats:
    - _Shininess: 0.040681794
    m_Colors:
    - _Color: {r: 0.5441177, g: 0.5441177, b: 0.5441177, a: 1}
    - _ReflectColor: {r: 1, g: 1, b: 1, a: 0.5}
    - _SpecColor: {r: 1, g: 0.31617647, b: 0.31617647, a: 1}
