%YAML 1.1
%TAG !u! tag:unity3d.com,2011:
--- !u!1045 &1
EditorBuildSettings:
  m_ObjectHideFlags: 0
  serializedVersion: 2
  m_Scenes:
  - enabled: 1
    path: Assets/Scenes/Menu.unity
    guid: ee200cef257724d499ac3df29254113d
  - enabled: 1
    path: Assets/Scenes/Main.unity
    guid: f69e3bedbf160d544a6f6804c923c64d
